{
    "defaultSeverity": "error",
    "extends": [
        "tslint:recommended"
    ],
    "jsRules": {},
    "rules": {},
    "rulesDirectory": [
        "node_modules/tslint-eslint-rules/dist/rules"
    ]
}